…
  mutate(mnr_solid = str_to_upper(mnr_solid)) |>
  filter(mnr_source != ".") |>
  filter(mnr_solid != ".") |>
  mutate(mnr_source = fct_relevel(
    mnr_source,
    "none",
    "beef cow",
    "dairy cow",
    "chicken",
    "swine",
    "turkey"
  ))
```

    ## # A tibble: 208 × 35
    ##    field_id region sampling_time  year  sand  clay drainage soil_type   p_h
    ##    <chr>     <dbl>         <dbl> <dbl> <dbl> <dbl>    <dbl>     <dbl> <dbl>
    ##  1 AP1601        1             1  2016  30    14          5         5  7.63
    ##  2 AP1602        1             1  2016  58     8          5         3  6.83
    ##  3 AP1603        1             1  2016  43.8  16          5         3  7.57
    ##  4 AP1604        1             1  2016  29.1  17.5        5         5  7.67
    ##  5 AP1605        1             1  2016  30    14          5         5  7.5 
    ##  6 AP1606        1             1  2016  29.1  17.5        5         5  7.13
    ##  7 AP1607        1             1  2016  26.4  20.5        4         3  7.7 
    ##  8 AP1608        1             1  2016  45    15          3         5  7.2 
    ##  9 AP1701        1             1  2017  58     8          5         3  7.4 
    ## 10 AP1702        1             1  2017  20    31          5         5  7.07
    ## # ℹ 198 more rows
    ## # ℹ 26 more variables: tile <chr>, om <dbl>, toc <chr>, date_of_toc <chr>,
    ## #   tn <chr>, cto_n <chr>, rtn <chr>, rtn_number <chr>, prev_crop <dbl>,
    ## #   ncredit_lb_ac <dbl>, ncredit_kg_ha <dbl>, cvr_prior_yr <dbl>,
    ## #   cvrs_species_lg_tm <chr>, cvrs5yrs <chr>, springfall_till_passes <chr>,
    ## #   till_type <chr>, mnr5yrs <chr>, mnr_source <fct>, mnr_solid <chr>,
    ## #   mnr_n_lb_ac <chr>, mnr_n_kg_ha <chr>, mnr_timing <chr>, …
…
